<svg xmlns="http://www.w3.org/2000/svg" width="15" height="26" viewBox="0 0 15 26">
  <defs>
    <style>
      .cls-1 {
        fill: #fff;
        fill-rule: evenodd;
      }
    </style>
  </defs>
  <path class="cls-1" d="M936.5,1056.42a6.705,6.705,0,1,0-6.682-6.71A6.7,6.7,0,0,0,936.5,1056.42Zm0-9.48a2.775,2.775,0,1,1-2.767,2.77A2.77,2.77,0,0,1,936.5,1046.94Zm2.7,14.95a12.5,12.5,0,0,0,3.88-1.61,1.972,1.972,0,0,0,.613-2.71,1.95,1.95,0,0,0-2.7-.62,8.445,8.445,0,0,1-9,0,1.949,1.949,0,0,0-2.7.62,1.971,1.971,0,0,0,.613,2.71,12.491,12.491,0,0,0,3.88,1.61l-3.736,3.75a1.962,1.962,0,0,0,2.77,2.78l3.669-3.69,3.672,3.69a1.961,1.961,0,1,0,2.767-2.78Z" transform="translate(-929 -1043)"/>
</svg>
