<svg xmlns="http://www.w3.org/2000/svg" width="12.969" height="17.968" viewBox="0 0 12.969 17.968">
  <defs>
    <style>
      .cls-1 {
        fill: #05a3dd;
        fill-rule: evenodd;
      }
    </style>
  </defs>
  <path class="cls-1" d="M736.75,877.542a7.191,7.191,0,0,1-3.976,1.123,6.985,6.985,0,0,1-5.416-2.379,8.25,8.25,0,0,1-1.922-4.6h-1.654v-1.311H725.3v-0.4c0-.428.026-0.829,0.053-1.2h-1.574v-1.337h1.761a8.474,8.474,0,0,1,2.188-4.518,7.031,7.031,0,0,1,5.283-2.218,7.564,7.564,0,0,1,3.549.855l-0.534,1.764a6.13,6.13,0,0,0-2.988-.748,4.643,4.643,0,0,0-3.522,1.47,6.318,6.318,0,0,0-1.6,3.395h7.445v1.337h-7.685c-0.027.347-.054,0.748-0.054,1.122v0.481h7.739v1.311h-7.552a6.421,6.421,0,0,0,1.468,3.5,5.066,5.066,0,0,0,3.762,1.551,6.914,6.914,0,0,0,3.255-.882Z" transform="translate(-723.781 -860.688)"/>
</svg>
