<svg id="Группа_1" data-name="Группа 1" xmlns="http://www.w3.org/2000/svg" width="32" height="32" viewBox="0 0 32 32">
  <defs>
    <style>
      .cls-2 {
        fill-rule: evenodd;
      }

      .cls-2 {
        fill: #fff;
      }
    </style>
  </defs>
  <path class="cls-2" d="M473.377,3005.38h-3.942v-12.45h3.942v12.45Zm0,6.56h-3.942v-3.35h3.942v3.35Z" transform="translate(-455 -2986)"/>
</svg>
