<svg xmlns="http://www.w3.org/2000/svg" width="48" height="48" viewBox="0 0 48 48">
  <defs>
    <style>
      .cls-1 {
        fill: #ffffff;
        fill-rule: evenodd;
      }
    </style>
  </defs>
  <path class="cls-1" d="M725.4,609.156c-1.133,1.767-1.6,1.767-1.6,2.26a21.133,21.133,0,0,1,.5,3.041,22.426,22.426,0,0,1,0,3.371,1.2,1.2,0,0,0,.755,1.191,1.036,1.036,0,0,0,.756-0.9,3.125,3.125,0,0,0-.042-1.027c-0.042-.781-1.175-3.658-1.175-5.1,0-1.274,1.93-2.177,2.014-3.123A10.484,10.484,0,0,1,727,610.8c0,1.521-1.427,1.6-1.427,2.8a4.577,4.577,0,0,0,.21.821c-0.126-1.233.965-1.191,0.881-2.137a5.37,5.37,0,0,1,.294,1.562c-0.042.987-.84,1.11-0.84,1.85a19.183,19.183,0,0,1,.168,1.931c0.042,0.781-.251,1.977-1.175,1.977a1.3,1.3,0,0,1-.923-0.5,7.216,7.216,0,0,0-.252,1.771c0,1.85,2.56.452,2.77,2.589a7.13,7.13,0,0,1,0,.987c-0.378-1.11-1.469-.576-1.763-1.439a4.165,4.165,0,0,0,.042.576c0.042,0.9,1.6.37,1.721,2.1a5.309,5.309,0,0,1,0,.863c-0.252-1.069-1.427-.493-1.763-1.562v1.685c-0.042.7,0.714,0.288,1.175,0.617a0.845,0.845,0,0,1,.234.835,1.339,1.339,0,0,1,.283.771,0.013,0.013,0,0,1-.006.007,0.182,0.182,0,0,1-.08.014,2.616,2.616,0,0,1-.739-0.228,1.038,1.038,0,0,1-.825-0.043c-0.419-.37-0.167-1.274-0.713-1.069-0.378.37,0.21,0.452,0.294,1.028a0.754,0.754,0,0,1-.423.719,0.862,0.862,0,0,1-.413.69h0a0.936,0.936,0,0,1-.286-0.663,0.876,0.876,0,0,1-.51-0.5c-0.126-.534.756-0.9,0.336-1.274-0.588-.123-0.42.535-0.755,0.946a0.809,0.809,0,0,1-.775.238,2.01,2.01,0,0,1-.679.277,0.14,0.14,0,0,1-.062-0.012l0,0a1.134,1.134,0,0,1,.161-0.734,0.714,0.714,0,0,1,.184-0.836c0.419-.37,1.049-0.041.965-0.575-0.294-.411-0.546.246-1.175,0.123a0.964,0.964,0,0,1-.652-0.656,1.31,1.31,0,0,1-.619-0.535,0.012,0.012,0,0,1,0-.01,1.457,1.457,0,0,1,.766-0.169h0a0.933,0.933,0,0,1,1-.274c0.42,0.206.5,0.9,1.175,0.7a0.863,0.863,0,0,0,.336-0.822c0-1.11-2.56-2.3-2.56-3.781-0.042-1.234,1.6-2.841,1.6-3.251a3.425,3.425,0,0,0-2.1-.576c-1.049,0-1.721.329-1.721,1.192,0,1.233,1.805,1.442,1.805,2.018,0,0.452-.672.658-0.672,1.233,0,0.411.672,0.534,0.672,1.274a3.412,3.412,0,0,1-.882,1.192c0.336-.617-0.881-0.822-0.545-1.808-0.126.123-.5,0.575-0.881,1.027a1.767,1.767,0,0,0-.63.987c-0.126.7,0.8,0.41,1.175,0.863a0.748,0.748,0,0,1,.114.866,1.1,1.1,0,0,1,.065.7l0,0a0.132,0.132,0,0,1-.059.012,1.438,1.438,0,0,1-.571-0.272,0.9,0.9,0,0,1-.845-0.2c-0.377-.411,0-1.274-0.587-1.109-0.42.246,0.126,0.493,0.126,1.068a0.758,0.758,0,0,1-.464.621,0.893,0.893,0,0,1-.5.624h-0.006a1.018,1.018,0,0,1-.173-0.659,0.79,0.79,0,0,1-.409-0.626c-0.084-.575.755-0.781,0.42-1.192-0.546-.2-0.378.452-0.756,0.863a0.859,0.859,0,0,1-.86.077,2.308,2.308,0,0,1-.661.194,0.18,0.18,0,0,1-.079-0.014,0.009,0.009,0,0,1-.006-0.006,1.349,1.349,0,0,1,.292-0.726,0.74,0.74,0,0,1,.307-0.758c0.462-.328.966,0.083,0.966-0.452-0.21-.452-0.588.206-1.217-0.041a0.959,0.959,0,0,1-.5-0.674,1.476,1.476,0,0,1-.558-0.6,0.018,0.018,0,0,1,0-.009,1.118,1.118,0,0,1,.727-0.058,0.835,0.835,0,0,1,1-.178c0.42,0.247.462,0.9,1.175,0.781a4.227,4.227,0,0,0,.881-1.4,5.3,5.3,0,0,0,.755-1.52c0-.247-0.545-0.288-1.175-0.782,0.336,1.11-1.174.946-.923,1.932a1.741,1.741,0,0,1-.713-1.15c0.042-.987.965-0.909,0.965-1.484a1.026,1.026,0,0,0-.21-0.617c-0.084.7-1.468,0.826-1.259,1.648a2.66,2.66,0,0,1-.545-1.278c0-.946,1.049-1.11,1.343-1.562a3.154,3.154,0,0,1,.293-1.726,2.656,2.656,0,0,1,2.266-.863c1.889,0.247,2.1.329,4.826,1.849a0.321,0.321,0,0,0,.21.041,2.638,2.638,0,0,0-.21-0.822,11.771,11.771,0,0,0-3.063-4.151c-0.294,0-.462.576-1.763,1.192a0.953,0.953,0,0,0-.209-0.863,0.547,0.547,0,0,0-.714.124c-0.5.452,0.168,0.739,0.126,1.315a0.8,0.8,0,0,1-.544.609,1.483,1.483,0,0,1-.5.637h-0.01a1.446,1.446,0,0,1-.248-0.753,0.9,0.9,0,0,1-.417-0.781c0.042-.534,1.007-0.781.5-1.11-0.5-.123-0.293.411-0.755,0.781a0.876,0.876,0,0,1-.806.059,2.006,2.006,0,0,1-.592.135,0.292,0.292,0,0,1-.206-0.06,0.009,0.009,0,0,1,0-.006,1.165,1.165,0,0,1,.372-0.578,0.777,0.777,0,0,1,.228-0.7c0.378-.452,1.091.083,1.175-0.452-0.168-.534-0.63,0-1.175,0a0.914,0.914,0,0,1-.621-0.616,1.926,1.926,0,0,1-.608-0.4,0.013,0.013,0,0,1,0-.012,1.273,1.273,0,0,1,.679-0.23,0.764,0.764,0,0,1,.8-0.34c0.587,0.123.629,0.821,1.007,0.451,0.21-.493-0.462-0.246-0.714-0.862a0.936,0.936,0,0,1,.155-0.824,1.093,1.093,0,0,1,.132-0.79h0.007a1.014,1.014,0,0,1,.5.45,0.812,0.812,0,0,1,.805.589c0.084,0.493-.5,1.11.168,1.356a3.124,3.124,0,0,0,1.468-1.4s-0.8-2.548-1.049-3c0.21,1.151-1.259.863-.839,2.055a3.191,3.191,0,0,1-.713-1.6c-0.042-.617.713-1.151,0.881-1.685A0.738,0.738,0,0,0,715,603.9c-0.713-.288-0.671.493-1.133,0.822a0.9,0.9,0,0,1-.913-0.158,2.013,2.013,0,0,1-.464.071,0.445,0.445,0,0,1-.268-0.067,0.016,0.016,0,0,1,0-.007,1.324,1.324,0,0,1,.411-0.615,0.79,0.79,0,0,1,.357-0.7c0.462-.329,1.259.288,1.259-0.328-0.21-.453-0.587,0-1.133-0.082a0.751,0.751,0,0,1-.5-0.6,0.834,0.834,0,0,1-.524-0.513,0,0,0,0,1,0,0,0.949,0.949,0,0,1,.673-0.1,0.771,0.771,0,0,1,.682-0.307c0.587,0.041.629,0.945,1.091,0.657,0.335-.452-0.42-0.493-0.714-0.945a0.732,0.732,0,0,1,.048-0.768,1.556,1.556,0,0,1-.016-0.8,0.01,0.01,0,0,1,.007,0,1.263,1.263,0,0,1,.65.419,0.726,0.726,0,0,1,.78.456c0.21,0.494-.336.946,0.252,1.069,0.461-.165-0.126-0.575.21-1.11a1.038,1.038,0,0,1,.787-0.377v0a1.387,1.387,0,0,1,.683-0.373l0.007,0a0.813,0.813,0,0,1-.049.673,0.854,0.854,0,0,1,0,1.022c-0.335.328-1.049,0.287-1.049,0.986a9.717,9.717,0,0,0,1.721,2.26,9.284,9.284,0,0,0,1.678,1.85c0.5,0.082,2.308-2.137,2.182-2.384-0.293-.658-0.755.37-1.51,0.37-0.336.041-.672-0.288-0.672-0.987,0-.451.378,0.165,0.839-0.041a0.565,0.565,0,0,0,.383-0.332,0.065,0.065,0,0,1-.067.025l-0.113-.038a0.807,0.807,0,0,0-.563-0.043,1.347,1.347,0,0,0-.45.171,2.593,2.593,0,0,1-.986.324,0.75,0.75,0,0,1-.13.011,1.26,1.26,0,0,1-.8-0.322,1.376,1.376,0,0,1-.441-1.2,0.067,0.067,0,0,1,.131-0.011,0.972,0.972,0,0,0,1.147.855,1.356,1.356,0,0,0,.482-0.164,1.681,1.681,0,0,1,.651-0.206,1.208,1.208,0,0,1,1.015.4c0.041,0.037.082,0.074,0.125,0.11a0.062,0.062,0,0,1,.012.063,0.606,0.606,0,0,0,.028-0.424,0.677,0.677,0,0,0-.755-0.576,1.437,1.437,0,0,0-.965.534,5.581,5.581,0,0,1-.336-0.821,4.224,4.224,0,0,1-.042-0.946c0.042-.246,0-0.287,1.3-0.411,0.042-.493.545-0.945,2.769-0.74a3.631,3.631,0,0,1,.881-0.534,0.9,0.9,0,0,1,.63.617,4.277,4.277,0,0,1,2.644,4.068v1.069A8.659,8.659,0,0,1,725.4,609.156Zm-4.532-8.96a0.6,0.6,0,0,0-.462.534h0.672a0.861,0.861,0,0,0,.461-0.493Zm4.784,6.946a3.224,3.224,0,0,0,.042-0.863c-0.126-.494-0.756-0.781-0.756-1.357a1.383,1.383,0,0,0-.084.9C725.066,606.443,725.612,606.484,725.654,607.142Zm-1.637.164c0.168,0.7.8,0.822,0.8,1.521a2.983,2.983,0,0,0,.168-0.946c-0.126-.534-0.839-0.945-0.8-1.561A1.421,1.421,0,0,0,724.017,607.306Zm-1.175,1.357c0.042,0.9.84,1.15,0.714,1.972a3.068,3.068,0,0,0,.335-1.15c-0.084-.7-0.881-1.275-0.755-2.014A1.924,1.924,0,0,0,722.842,608.663Zm-1.217,1.561c0.042,0.946.84,1.192,0.714,2.055a3.188,3.188,0,0,0,.377-1.192c-0.042-.657-0.923-1.356-0.755-2.137A1.838,1.838,0,0,0,721.625,610.224Zm-1.091-3.9a2.084,2.084,0,0,0-.419,1.233c0.042,0.945.839,1.233,0.629,2.137a2.855,2.855,0,0,0,.462-1.192C721.206,607.758,720.324,607.1,720.534,606.32Zm1.217-1.274a1.785,1.785,0,0,0-.335,1.233c0,0.945.8,1.192,0.629,2.055a3.126,3.126,0,0,0,.42-1.192C722.423,606.443,721.583,605.785,721.751,605.046Zm1.007-1.233a1.563,1.563,0,0,0-.21,1.109c0.126,0.781.84,0.946,0.756,1.768a2.8,2.8,0,0,0,.21-1.069C723.472,605.005,722.674,604.553,722.758,603.813Zm0.756-.986a1.324,1.324,0,0,0,0,.9c0.168,0.657.755,0.7,0.755,1.315a2.2,2.2,0,0,0,.084-0.863C724.185,603.731,723.514,603.484,723.514,602.827Zm0.461-1.192a1.934,1.934,0,0,0,.042.863c0.21,0.534.756,0.534,0.839,1.15a1.767,1.767,0,0,0,0-.821C724.689,602.415,724.059,602.169,723.975,601.635Zm1.175-.37c-0.21-.329-0.839-0.412-0.965-0.9a1.478,1.478,0,0,0,.168.739c0.252,0.452.755,0.37,0.881,0.9A3.279,3.279,0,0,0,725.15,601.265Zm1.427,2.753a1.9,1.9,0,0,0,0-.7,4.766,4.766,0,0,1-.839-0.986,0.964,0.964,0,0,0,.084.7C726.031,603.525,726.493,603.484,726.577,604.018Zm-0.336,1.685a1.772,1.772,0,0,0,0-.822c-0.126-.411-0.755-0.7-0.8-1.233a1.505,1.505,0,0,0,0,.864C725.612,605.087,726.2,605.087,726.241,605.7Z" transform="translate(-695.5 -590.5)"/>
</svg>
