<svg xmlns="http://www.w3.org/2000/svg" width="48" height="48" viewBox="0 0 48 48">
  <defs>
    <style>
      .cls-1 {
        fill: #05a3dd;
        fill-rule: evenodd;
      }
    </style>
  </defs>
  <path id="Shape_14_copy" data-name="Shape 14 copy" class="cls-1" d="M731.887,206.227L731,204.3a0.5,0.5,0,0,0-.133.132,2.831,2.831,0,0,0,.017.829,0.928,0.928,0,0,1-.812.7l0.081,0.331a1.088,1.088,0,0,0,.99-0.845l0.374,0.794-2.206,1.366V226.4a3.964,3.964,0,0,1-2.532-1.094c-0.552-.812-0.439-1.84-0.439-3.166,0-.183.1-8.522-0.113-9.516a4.214,4.214,0,0,0-.747-1.509,2.735,2.735,0,0,0-1.185-.9V226.1l-7.806-.033V210.451a2.281,2.281,0,0,0-1.162.646,2.385,2.385,0,0,0-.8,1.542s-0.015,7.527-.015,9.516c0,1.907-.206,2.321-0.379,2.537a2.909,2.909,0,0,1-2.75,1.508c0-5.076.027-14.741,0.039-18.932l-3.625-1.993,0.162-.373a5.329,5.329,0,0,1,.908.373l0.081-.249a2.164,2.164,0,0,0-.873-0.351l0.143-.207a2.167,2.167,0,0,1,.974.268v-0.268a4.286,4.286,0,0,0-.853-0.373c-0.121-.1-0.709-0.416-1.339-0.871l0.141-.27c0.184,0.1,1,.643,1.34.809l0.081-.207c-0.244-.229-0.669-0.4-1.318-0.912l0.182-.332c0.508,0.312.848,0.642,1.379,1.015a2.814,2.814,0,0,1,.649.539c0.2,0.393-.162,1.45.934,1.762l0.021-.331c-0.731-.456-0.427-1.141-0.711-1.575-0.162-.29-1.034-0.685-0.628-1.265a22.531,22.531,0,0,1,1.764,1.472,1.229,1.229,0,0,0,.346,1.2c0.076,0.042.161,0.085,0.248,0.123v-0.009a10.817,10.817,0,0,0,3.734.73,5.343,5.343,0,0,0,3.764-1.528l0.01-.011c0.178,0.216.373,0.728,0.47,0.761l0.474-.135a5.136,5.136,0,0,0-.685-1.113,14.016,14.016,0,0,1-1.766,0,9.176,9.176,0,0,1-.117-1.119l-0.386-.083c0.364-1.844-.242-3.026.954-3.565a0.72,0.72,0,0,1,.122-0.019,1.817,1.817,0,0,1,.914.248,2.342,2.342,0,0,1,1.091,1.264c0.11,0.32-.023,4.113-0.032,4.36l0.535-.153c-0.016-.05.081-1.112,0.081-2.223,0-1.724.016-2.122-.2-2.553A2.831,2.831,0,0,0,718.986,199a14.578,14.578,0,0,1,4.022.5,4.588,4.588,0,0,1,2.386,2.221,5.565,5.565,0,0,1,.649,1.907c-1.234,0-4.107-.317-3.49.96a3.408,3.408,0,0,0,2.078,1.309,9.495,9.495,0,0,0,4.662-.428c0.144-.053.316-0.128,0.5-0.2,0.536-.2-0.162-0.9.227-1.114,0,0,.276-0.149.682-0.4l0.032-.016-0.339-.732,2.094-1.094,1.51,3.147Zm-13.989-4.7a0.771,0.771,0,0,0,1.117-.061,0.722,0.722,0,0,0-.812-0.436,0.488,0.488,0,0,0-.3.454v0.043Zm-0.271-1.739a0.724,0.724,0,0,0,.3.787A0.493,0.493,0,0,0,717.627,199.786Zm0.5-.022a0.526,0.526,0,0,0,.325.768A0.579,0.579,0,0,0,718.122,199.764Zm0.467,0.042a0.528,0.528,0,0,0,.325.766A0.654,0.654,0,0,0,718.589,199.806Zm0.409,0c-0.121.394-.064,0.539,0.39,0.746A0.787,0.787,0,0,0,719,199.806Zm4.914,6.278a1.65,1.65,0,0,1-.568.829,4.3,4.3,0,0,1-3,1.078,4.906,4.906,0,0,1-2.678-.788,2,2,0,0,1-.934-1.119l-0.56.269a2.475,2.475,0,0,0,1.157,1.388,4.753,4.753,0,0,0,2.616.87v5.864h-3.116v0.705h3.124v10.547h0.731V215.183h3.266v-0.7H720.7v-5.868a4.286,4.286,0,0,0,3.009-1.18,2.365,2.365,0,0,0,.771-1.119Zm-7.252,21.841a3.247,3.247,0,0,0,.3-0.3,2.2,2.2,0,0,0,.245-0.508,0.875,0.875,0,0,1,.376-0.568l0.04-.006H719v1.877l-0.027.036a0.725,0.725,0,0,1-.267.181,7.477,7.477,0,0,0-.972.6l-0.1.072c-0.9.66-1.315,0.962-2.225,1.556L715.2,231v-0.255A3.788,3.788,0,0,1,716.66,227.925Zm6.347-1.344a0.908,0.908,0,0,1,.108.183,6.282,6.282,0,0,0,.813,1.255,5.415,5.415,0,0,0,.441.448c0.463,0.431.769,0.716,0.885,2.264l0.02,0.262-0.224-.13a13.661,13.661,0,0,1-1.931-1.388l-0.083-.067a6.486,6.486,0,0,0-.962-0.618,1.241,1.241,0,0,1-.459-0.337,3.2,3.2,0,0,1-.117-1.251l-0.009-.662h1.478Z" transform="translate(-696.5 -191)"/>
</svg>
