<svg xmlns="http://www.w3.org/2000/svg" width="48" height="48" viewBox="0 0 48 48">
  <defs>
    <style>
      .cls-1 {
        fill: #05a3dd;
        fill-rule: evenodd;
      }
    </style>
  </defs>
  <path class="cls-1" d="M731.32,779.928a0.224,0.224,0,0,1-.191.061,0.534,0.534,0,0,1-.243-0.2,1.214,1.214,0,0,0-1-.511,1.25,1.25,0,0,0-1.186.653,0.356,0.356,0,0,1,.211.325,0.36,0.36,0,0,1-.061.2,0.406,0.406,0,0,1,0,.792,0.357,0.357,0,0,1,.064.2,0.353,0.353,0,0,1-.311.353,0.721,0.721,0,0,0,.247.339,1.6,1.6,0,0,0,1.148.4,1.861,1.861,0,0,0,.513-0.14,0.477,0.477,0,0,1,.437-0.039,0.536,0.536,0,0,1,.189.332,1.387,1.387,0,0,1-.172,1.007,1.37,1.37,0,0,1-1.167.615,1.613,1.613,0,0,1-.5-0.082,2.225,2.225,0,0,1-1.244-1.283,3.414,3.414,0,0,1-.276-1.148h-0.055a3.621,3.621,0,0,0,.047.643,3.025,3.025,0,0,0,.743,1.67l0.091,0.106a1.417,1.417,0,0,1,.563.944,1.576,1.576,0,0,1-.763,1.071,2.637,2.637,0,0,1-1.228.318h0a2.6,2.6,0,0,1-1.226-.318,1.582,1.582,0,0,1-.763-1.071,1.391,1.391,0,0,1,.554-0.932l0.1-.118a3.041,3.041,0,0,0,.743-1.67,3.6,3.6,0,0,0,.046-0.643h-0.051a3.445,3.445,0,0,1-.277,1.148,2.225,2.225,0,0,1-1.244,1.283,1.613,1.613,0,0,1-.5.082,1.369,1.369,0,0,1-1.166-.615,1.388,1.388,0,0,1-.173-1.007,0.546,0.546,0,0,1,.189-0.332,0.477,0.477,0,0,1,.437.039,1.859,1.859,0,0,0,.514.14,1.606,1.606,0,0,0,1.148-.4,0.715,0.715,0,0,0,.246-0.339,0.354,0.354,0,0,1-.251-0.555,0.407,0.407,0,0,1,0-.794,0.357,0.357,0,0,1-.061-0.2,0.353,0.353,0,0,1,.215-0.326,1.238,1.238,0,0,0-1.161-.653h-0.025a1.212,1.212,0,0,0-1,.511,0.539,0.539,0,0,1-.243.2,0.224,0.224,0,0,1-.191-0.061,3,3,0,0,1-.68-2.022,2.7,2.7,0,0,1,.58-1.769,1.13,1.13,0,0,1,.841-0.321c1.052,0.019,1.777,1.268,2.2,2.313a9.334,9.334,0,0,1,.477,1.77h0.085a9.02,9.02,0,0,0-.52-2.071c-0.149-.406-0.281-0.715-0.4-0.987a3.3,3.3,0,0,1-.393-1.743c0.086-1.356,1.867-3.018,1.885-3.034L727.17,772l0.069,0.063c0.018,0.016,1.8,1.673,1.885,3.035a3.3,3.3,0,0,1-.393,1.741c-0.116.273-.249,0.582-0.4,0.988a8.963,8.963,0,0,0-.518,2.072H727.9a9.4,9.4,0,0,1,.476-1.77c0.423-1.045,1.149-2.294,2.2-2.313a1.133,1.133,0,0,1,.842.321,2.706,2.706,0,0,1,.58,1.769A3.007,3.007,0,0,1,731.32,779.928Zm-7.447,3.162a0.629,0.629,0,0,0,.047.043A0.274,0.274,0,1,0,723.873,783.09Zm1.444-4.607a1.873,1.873,0,0,0-1.417-.853,0.94,0.94,0,0,0-.876,1.066,0.914,0.914,0,0,1,.28-0.765,1.025,1.025,0,0,1,1.283-.028,3.963,3.963,0,0,1,1.121,1.347,4.012,4.012,0,0,1,.278.649h0.14A4.5,4.5,0,0,0,725.317,778.483Zm0.784,3.32a2.929,2.929,0,0,1-.212.6,1.673,1.673,0,0,1-1.182,1.026v-0.006a0.948,0.948,0,0,1-.585-0.135,0.8,0.8,0,0,1-.07-0.041,0.181,0.181,0,0,0,.037.026c0.01,0.007.023,0.009,0.033,0.015a1.019,1.019,0,0,0,1.073.056,2.378,2.378,0,0,0,1.051-1.545H726.1Zm1.071,4.153c0.1-1.253.149-2.648,0.164-4.153h-0.164v4.153Zm0-12.847v6.79h0.166C727.324,777.784,727.257,775.5,727.172,773.109Zm3.3,9.981a0.274,0.274,0,1,0-.047.043A0.629,0.629,0,0,0,730.47,783.09Zm-1.32.258a1.017,1.017,0,0,0,1.072-.056,0.349,0.349,0,0,0,.034-0.015,0.258,0.258,0,0,0,.037-0.026c-0.022.017-.048,0.026-0.071,0.041a0.948,0.948,0,0,1-.585.135v0.006a1.677,1.677,0,0,1-1.182-1.026,2.869,2.869,0,0,1-.211-0.6H728.1A2.376,2.376,0,0,0,729.15,783.348Zm1.293-5.718a1.871,1.871,0,0,0-1.416.853,4.479,4.479,0,0,0-.81,1.416h0.14a4.291,4.291,0,0,1,1.4-2,1.024,1.024,0,0,1,1.282.028,0.914,0.914,0,0,1,.28.765A0.94,0.94,0,0,0,730.443,777.63Zm-8.384,12.654c-0.116.273-.248,0.582-0.4,0.988a8.963,8.963,0,0,0-.518,2.072h0.087a9.4,9.4,0,0,1,.476-1.77c0.424-1.045,1.149-2.294,2.2-2.313a1.133,1.133,0,0,1,.842.321,2.706,2.706,0,0,1,.58,1.769,3,3,0,0,1-.68,2.022,0.224,0.224,0,0,1-.191.061,0.534,0.534,0,0,1-.243-0.2,1.214,1.214,0,0,0-1-.511,1.252,1.252,0,0,0-1.186.653,0.357,0.357,0,0,1,.15.525,0.406,0.406,0,0,1,0,.792,0.357,0.357,0,0,1-.248.556,0.721,0.721,0,0,0,.247.339,1.6,1.6,0,0,0,1.148.4,1.861,1.861,0,0,0,.513-0.14,0.479,0.479,0,0,1,.438-0.039,0.539,0.539,0,0,1,.188.332,1.325,1.325,0,0,1-1.339,1.622,1.617,1.617,0,0,1-.5-0.082,2.225,2.225,0,0,1-1.244-1.283,3.439,3.439,0,0,1-.276-1.148h-0.055a3.719,3.719,0,0,0,.047.643,3.025,3.025,0,0,0,.743,1.67l0.091,0.106a1.417,1.417,0,0,1,.563.944,1.577,1.577,0,0,1-.762,1.071A2.642,2.642,0,0,1,720.5,800h0a2.6,2.6,0,0,1-1.226-.318,1.582,1.582,0,0,1-.763-1.071,1.4,1.4,0,0,1,.554-0.932l0.1-.118a3.041,3.041,0,0,0,.743-1.67,3.621,3.621,0,0,0,.047-0.643H719.9a3.464,3.464,0,0,1-.276,1.148,2.232,2.232,0,0,1-1.244,1.283,1.617,1.617,0,0,1-.5.082,1.325,1.325,0,0,1-1.339-1.622,0.539,0.539,0,0,1,.188-0.332,0.479,0.479,0,0,1,.438.039,1.841,1.841,0,0,0,.513.14,1.6,1.6,0,0,0,1.148-.4,0.725,0.725,0,0,0,.247-0.339,0.355,0.355,0,0,1-.252-0.555,0.407,0.407,0,0,1,0-.794,0.356,0.356,0,0,1-.06-0.2,0.352,0.352,0,0,1,.215-0.326,1.241,1.241,0,0,0-1.162-.653h-0.024a1.214,1.214,0,0,0-1,.511,0.539,0.539,0,0,1-.243.2,0.224,0.224,0,0,1-.191-0.061,3,3,0,0,1-.68-2.022,2.706,2.706,0,0,1,.58-1.769,1.13,1.13,0,0,1,.841-0.321c1.052,0.019,1.777,1.268,2.2,2.313a9.4,9.4,0,0,1,.476,1.77h0.086a8.986,8.986,0,0,0-.521-2.071c-0.149-.406-0.281-0.715-0.4-0.987a3.305,3.305,0,0,1-.394-1.743c0.086-1.356,1.867-3.018,1.885-3.034l0.069-.064,0.069,0.063c0.018,0.016,1.8,1.673,1.886,3.035A3.3,3.3,0,0,1,722.059,790.284Zm-0.095,2.411a3.951,3.951,0,0,1,1.121-1.347,1.025,1.025,0,0,1,1.283.028,0.917,0.917,0,0,1,.28.765,0.941,0.941,0,0,0-.877-1.066,1.871,1.871,0,0,0-1.416.853,4.5,4.5,0,0,0-.809,1.416h0.139A4.016,4.016,0,0,1,721.964,792.7Zm1.787,3.883a0.642,0.642,0,0,0,.048-0.043A0.255,0.255,0,1,0,723.751,796.578Zm-1.273.215a1.028,1.028,0,0,0,1.143-.1,0.213,0.213,0,0,1-.037.026,0.948,0.948,0,0,1-.619.15v0.006a1.674,1.674,0,0,1-1.181-1.026,2.816,2.816,0,0,1-.212-0.6h-0.144A2.378,2.378,0,0,0,722.478,796.793Zm-5.277-.258a0.629,0.629,0,0,0,.047.043A0.267,0.267,0,1,0,717.2,796.535Zm1.444-4.607a1.873,1.873,0,0,0-1.417-.853,0.941,0.941,0,0,0-.876,1.066,0.917,0.917,0,0,1,.28-0.765,1.025,1.025,0,0,1,1.283-.028,3.951,3.951,0,0,1,1.121,1.347,4.107,4.107,0,0,1,.279.649h0.139A4.5,4.5,0,0,0,718.645,791.928Zm0.784,3.32a2.872,2.872,0,0,1-.212.6,1.673,1.673,0,0,1-1.182,1.026v-0.006a0.946,0.946,0,0,1-.619-0.15,0.181,0.181,0,0,1-.037-0.026,1.028,1.028,0,0,0,1.143.1,2.378,2.378,0,0,0,1.051-1.545h-0.144ZM720.5,799.4c0.1-1.253.149-2.648,0.164-4.153H720.5V799.4Zm0-12.847v6.79h0.166C720.652,791.229,720.586,788.942,720.5,786.554Zm-2.715-6.565a0.539,0.539,0,0,1-.243-0.2,1.212,1.212,0,0,0-1-.511,1.249,1.249,0,0,0-1.186.653,0.356,0.356,0,0,1,.211.325,0.36,0.36,0,0,1-.061.2,0.406,0.406,0,0,1,0,.792,0.355,0.355,0,0,1-.248.556,0.735,0.735,0,0,0,.247.339,1.6,1.6,0,0,0,1.148.4,1.859,1.859,0,0,0,.514-0.14,0.477,0.477,0,0,1,.437-0.039,0.546,0.546,0,0,1,.189.332,1.388,1.388,0,0,1-.173,1.007,1.369,1.369,0,0,1-1.166.615,1.613,1.613,0,0,1-.5-0.082,2.225,2.225,0,0,1-1.244-1.283,3.445,3.445,0,0,1-.277-1.148h-0.054a3.6,3.6,0,0,0,.046.643,3.025,3.025,0,0,0,.743,1.67l0.092,0.106a1.417,1.417,0,0,1,.563.944,1.579,1.579,0,0,1-.763,1.071,2.639,2.639,0,0,1-1.228.318h0a2.6,2.6,0,0,1-1.227-.318,1.583,1.583,0,0,1-.762-1.071,1.392,1.392,0,0,1,.553-0.932l0.1-.118a3.041,3.041,0,0,0,.743-1.67,3.621,3.621,0,0,0,.047-0.643h-0.052a3.414,3.414,0,0,1-.276,1.148,2.225,2.225,0,0,1-1.244,1.283,1.617,1.617,0,0,1-.5.082,1.325,1.325,0,0,1-1.339-1.622,0.539,0.539,0,0,1,.188-0.332,0.479,0.479,0,0,1,.438.039,1.861,1.861,0,0,0,.513.14,1.6,1.6,0,0,0,1.148-.4,0.725,0.725,0,0,0,.247-0.339,0.355,0.355,0,0,1-.252-0.555,0.407,0.407,0,0,1,0-.794,0.356,0.356,0,0,1,.155-0.525,1.238,1.238,0,0,0-1.161-.653h-0.025a1.214,1.214,0,0,0-1,.511,0.534,0.534,0,0,1-.243.2,0.224,0.224,0,0,1-.191-0.061,3,3,0,0,1-.68-2.022,2.706,2.706,0,0,1,.58-1.769,1.131,1.131,0,0,1,.842-0.321c1.051,0.019,1.777,1.268,2.2,2.313a9.4,9.4,0,0,1,.476,1.77h0.086a9.02,9.02,0,0,0-.52-2.071c-0.15-.406-0.282-0.715-0.4-0.987a3.305,3.305,0,0,1-.394-1.743c0.086-1.356,1.867-3.018,1.885-3.034l0.069-.064,0.069,0.063c0.018,0.016,1.8,1.673,1.886,3.035a3.3,3.3,0,0,1-.393,1.741c-0.117.273-.249,0.582-0.4,0.988a8.984,8.984,0,0,0-.519,2.072h0.087a9.334,9.334,0,0,1,.477-1.77c0.423-1.045,1.148-2.294,2.2-2.313a1.131,1.131,0,0,1,.841.321,2.7,2.7,0,0,1,.58,1.769,3,3,0,0,1-.68,2.022A0.224,0.224,0,0,1,717.785,779.989Zm-7.255,3.1c0.012,0.018.033,0.026,0.047,0.043A0.28,0.28,0,1,0,710.53,783.09Zm1.443-4.607a1.871,1.871,0,0,0-1.416-.853,0.94,0.94,0,0,0-.876,1.066,0.914,0.914,0,0,1,.28-0.765,1.024,1.024,0,0,1,1.282-.028,3.94,3.94,0,0,1,1.121,1.347,4.016,4.016,0,0,1,.279.649h0.14A4.479,4.479,0,0,0,711.973,778.483Zm0.784,3.32a2.816,2.816,0,0,1-.212.6,1.674,1.674,0,0,1-1.181,1.026v-0.006a0.953,0.953,0,0,1-.586-0.135c-0.022-.015-0.048-0.024-0.069-0.04a0.266,0.266,0,0,0,.036.025c0.01,0.007.023,0.009,0.033,0.015a1.019,1.019,0,0,0,1.073.056A2.376,2.376,0,0,0,712.9,781.8h-0.145Zm1.071,4.153c0.1-1.253.149-2.648,0.165-4.153h-0.165v4.153Zm0-12.847v6.79H714C713.98,777.784,713.914,775.5,713.828,773.109Zm3.3,9.981a0.261,0.261,0,1,0-.048.043A0.491,0.491,0,0,0,717.127,783.09Zm-1.321.258a1.019,1.019,0,0,0,1.073-.056c0.01-.006.023-0.008,0.033-0.015a0.181,0.181,0,0,0,.037-0.026c-0.021.017-.048,0.026-0.07,0.041a0.95,0.95,0,0,1-.586.135v0.006a1.673,1.673,0,0,1-1.182-1.026,2.872,2.872,0,0,1-.212-0.6h-0.144A2.378,2.378,0,0,0,715.806,783.348Zm1.294-5.718a1.873,1.873,0,0,0-1.417.853,4.5,4.5,0,0,0-.809,1.416h0.139a4.107,4.107,0,0,1,.279-0.649,3.951,3.951,0,0,1,1.121-1.347,1.025,1.025,0,0,1,1.283.028,0.914,0.914,0,0,1,.28.765A0.941,0.941,0,0,0,717.1,777.63Z" transform="translate(-696.5 -762)"/>
</svg>
